------------------------------------
Adenine: Clustering Performance
------------------------------------
Index Name          |    Index Score
------------------------------------
ami                 |    0.375
------------------------------------
ari                 |    0.213
------------------------------------
completeness        |    0.378
------------------------------------
homogeneity         |    1.0
------------------------------------
silhouette          |    0.374
------------------------------------
v_measure           |    0.549
------------------------------------
