------------------------------------
Adenine: Clustering Performance
------------------------------------
Index Name          |    Index Score
------------------------------------
ami                 |    0.321
------------------------------------
ari                 |    0.137
------------------------------------
completeness        |    0.327
------------------------------------
homogeneity         |    1.0
------------------------------------
silhouette          |    0.162
------------------------------------
v_measure           |    0.493
------------------------------------
