------------------------------------
Adenine: Clustering Performance
------------------------------------
Index Name          |    Index Score
------------------------------------
ami                 |    0.37
------------------------------------
ari                 |    0.201
------------------------------------
completeness        |    0.374
------------------------------------
homogeneity         |    1.0
------------------------------------
silhouette          |    0.389
------------------------------------
v_measure           |    0.545
------------------------------------
