------------------------------------
Adenine: Clustering Performance
------------------------------------
Index Name          |    Index Score
------------------------------------
ami                 |    0.0133
------------------------------------
ari                 |    0.00537
------------------------------------
completeness        |    0.146
------------------------------------
homogeneity         |    0.0182
------------------------------------
silhouette          |    0.188
------------------------------------
v_measure           |    0.0324
------------------------------------
