------------------------------------
Adenine: Clustering Performance
------------------------------------
Index Name          |    Index Score
------------------------------------
ami                 |    1.0
------------------------------------
ari                 |    1.0
------------------------------------
completeness        |    1.0
------------------------------------
homogeneity         |    1.0
------------------------------------
silhouette          |    0.536
------------------------------------
v_measure           |    1.0
------------------------------------
