------------------------------------
Adenine: Clustering Performance
------------------------------------
Index Name          |    Index Score
------------------------------------
ami                 |    0.0506
------------------------------------
ari                 |    0.0199
------------------------------------
completeness        |    0.0727
------------------------------------
homogeneity         |    0.196
------------------------------------
silhouette          |    0.33
------------------------------------
v_measure           |    0.106
------------------------------------
