------------------------------------
Adenine: Clustering Performance
------------------------------------
Index Name          |    Index Score
------------------------------------
ami                 |    0.984
------------------------------------
ari                 |    0.991
------------------------------------
completeness        |    0.984
------------------------------------
homogeneity         |    0.984
------------------------------------
silhouette          |    0.526
------------------------------------
v_measure           |    0.984
------------------------------------
